<?xml version="1.0" encoding="UTF-8" standalone="no"?>
<!-- Created with Inkscape (http://www.inkscape.org/) -->

<svg
   xmlns:dc="http://purl.org/dc/elements/1.1/"
   xmlns:cc="http://creativecommons.org/ns#"
   xmlns:rdf="http://www.w3.org/1999/02/22-rdf-syntax-ns#"
   xmlns:svg="http://www.w3.org/2000/svg"
   xmlns="http://www.w3.org/2000/svg"
   xmlns:sodipodi="http://sodipodi.sourceforge.net/DTD/sodipodi-0.dtd"
   xmlns:inkscape="http://www.inkscape.org/namespaces/inkscape"
   width="210mm"
   height="297mm"
   viewBox="0 0 210 297"
   version="1.1"
   id="svg1414"
   inkscape:version="0.92.4 (5da689c313, 2019-01-14)"
   sodipodi:docname="wuerfel-hinten.svg">
  <defs
     id="defs1408" />
  <sodipodi:namedview
     id="base"
     pagecolor="#ffffff"
     bordercolor="#666666"
     borderopacity="1.0"
     inkscape:pageopacity="0.0"
     inkscape:pageshadow="2"
     inkscape:zoom="0.7"
     inkscape:cx="391.07637"
     inkscape:cy="657.41152"
     inkscape:document-units="mm"
     inkscape:current-layer="g6275"
     showgrid="false"
     inkscape:window-width="1920"
     inkscape:window-height="986"
     inkscape:window-x="-11"
     inkscape:window-y="-11"
     inkscape:window-maximized="1" />
  <metadata
     id="metadata1411">
    <rdf:RDF>
      <cc:Work
         rdf:about="">
        <dc:format>image/svg+xml</dc:format>
        <dc:type
           rdf:resource="http://purl.org/dc/dcmitype/StillImage" />
        <dc:title />
      </cc:Work>
    </rdf:RDF>
  </metadata>
  <g
     inkscape:label="Ebene 1"
     inkscape:groupmode="layer"
     id="layer1">
    <rect
       style="fill:#333333;fill-opacity:1;stroke-width:0.27806848"
       id="rect1382"
       width="210.34111"
       height="210.34111"
       x="0.4009099"
       y="-0.3373456"
       inkscape:export-xdpi="96.449997"
       inkscape:export-ydpi="96.449997" />
    <text
       xml:space="preserve"
       style="font-style:normal;font-weight:normal;font-size:16.93333244px;line-height:1.25;font-family:sans-serif;letter-spacing:0px;word-spacing:0px;fill:#000000;fill-opacity:1;stroke:none;stroke-width:0.26458332"
       x="18.441595"
       y="28.661394"
       id="text5696"
       inkscape:export-xdpi="96.449997"
       inkscape:export-ydpi="96.449997"><tspan
         sodipodi:role="line"
         id="tspan5694"
         x="18.441595"
         y="28.661394"
         style="fill:#e9ddaf;stroke-width:0.26458332">Wie erstelle ich OER?</tspan></text>
    <g
       id="g6275"
       transform="matrix(1.4748068,0.00288713,-0.00277407,1.5349128,-61.41194,25.804076)">
      <rect
         y="12.236013"
         x="51.855057"
         height="96.149239"
         width="123.54021"
         id="rect6267"
         style="fill:#e9ddaf;fill-opacity:1;stroke-width:0.39148986"
         transform="matrix(0.99999957,9.2360813e-4,6.1944597e-4,0.99999981,0,0)"
         inkscape:export-xdpi="96.449997"
         inkscape:export-ydpi="96.449997" />
      <text
         id="text6259"
         y="24.713341"
         x="54.79158"
         style="font-style:normal;font-weight:normal;font-size:7.31416559px;line-height:1.25;font-family:sans-serif;letter-spacing:0px;word-spacing:0px;fill:#333333;fill-opacity:1;stroke:none;stroke-width:0.2742812"
         xml:space="preserve"
         transform="matrix(1.0366532,-1.3545015e-4,-1.3545004e-4,0.96464278,0,0)"
         inkscape:export-xdpi="96.449997"
         inkscape:export-ydpi="96.449997"><tspan
           style="fill:#333333;stroke-width:0.2742812"
           y="24.713341"
           x="54.79158"
           sodipodi:role="line"
           id="tspan6420">- Material in offenem Format</tspan><tspan
           style="fill:#333333;stroke-width:0.2742812"
           y="33.856049"
           x="54.79158"
           sodipodi:role="line"
           id="tspan890">  erstellen</tspan><tspan
           style="fill:#333333;stroke-width:0.2742812"
           y="42.998756"
           x="54.79158"
           sodipodi:role="line"
           id="tspan840">- Lizenz vergeben </tspan><tspan
           style="fill:#333333;stroke-width:0.2742812"
           y="52.141464"
           x="54.79158"
           sodipodi:role="line"
           id="tspan892">  (so offen wie möglich)</tspan><tspan
           style="fill:#333333;stroke-width:0.2742812"
           y="61.284172"
           x="54.79158"
           sodipodi:role="line"
           id="tspan842">- Metadaten setzen </tspan><tspan
           style="fill:#333333;stroke-width:0.2742812"
           y="70.426872"
           x="54.79158"
           sodipodi:role="line"
           id="tspan894">  (Fach, Thema, Herkunft, ...)</tspan><tspan
           style="fill:#333333;stroke-width:0.2742812"
           y="79.56958"
           x="54.79158"
           sodipodi:role="line"
           id="tspan844">- Material online bereitstellen!</tspan><tspan
           style="fill:#333333;stroke-width:0.2742812"
           y="88.712288"
           x="54.79158"
           sodipodi:role="line"
           id="tspan846" /><tspan
           style="fill:#333333;stroke-width:0.2742812"
           y="97.854996"
           x="54.79158"
           sodipodi:role="line"
           id="tspan6418">www.oer-wuerfel.de/tutorials</tspan></text>
    </g>
  </g>
</svg>
