<?xml version="1.0" encoding="UTF-8" standalone="no"?>
<!-- Created with Inkscape (http://www.inkscape.org/) -->

<svg
   xmlns:dc="http://purl.org/dc/elements/1.1/"
   xmlns:cc="http://creativecommons.org/ns#"
   xmlns:rdf="http://www.w3.org/1999/02/22-rdf-syntax-ns#"
   xmlns:svg="http://www.w3.org/2000/svg"
   xmlns="http://www.w3.org/2000/svg"
   xmlns:sodipodi="http://sodipodi.sourceforge.net/DTD/sodipodi-0.dtd"
   xmlns:inkscape="http://www.inkscape.org/namespaces/inkscape"
   width="210mm"
   height="297mm"
   viewBox="0 0 210 297"
   version="1.1"
   id="svg1414"
   inkscape:version="0.92.4 (5da689c313, 2019-01-14)"
   sodipodi:docname="OER-Würfel-Vorne.svg">
  <defs
     id="defs1408" />
  <sodipodi:namedview
     id="base"
     pagecolor="#ffffff"
     bordercolor="#666666"
     borderopacity="1.0"
     inkscape:pageopacity="0.0"
     inkscape:pageshadow="2"
     inkscape:zoom="0.98994949"
     inkscape:cx="374.87499"
     inkscape:cy="696.31835"
     inkscape:document-units="mm"
     inkscape:current-layer="layer1"
     showgrid="false"
     inkscape:window-width="1920"
     inkscape:window-height="986"
     inkscape:window-x="-11"
     inkscape:window-y="-11"
     inkscape:window-maximized="1" />
  <metadata
     id="metadata1411">
    <rdf:RDF>
      <cc:Work
         rdf:about="">
        <dc:format>image/svg+xml</dc:format>
        <dc:type
           rdf:resource="http://purl.org/dc/dcmitype/StillImage" />
        <dc:title />
      </cc:Work>
    </rdf:RDF>
  </metadata>
  <g
     inkscape:label="Ebene 1"
     inkscape:groupmode="layer"
     id="layer1">
    <rect
       style="fill:#333333;fill-opacity:1;stroke-width:0.27806848"
       id="rect1382"
       width="210.34111"
       height="210.34111"
       x="0.4009099"
       y="-0.3373456" />
    <text
       xml:space="preserve"
       style="font-style:normal;font-weight:normal;font-size:16.93333244px;line-height:1.25;font-family:sans-serif;letter-spacing:0px;word-spacing:0px;fill:#000000;fill-opacity:1;stroke:none;stroke-width:0.26458332"
       x="29.399645"
       y="37.481289"
       id="text5696"><tspan
         sodipodi:role="line"
         id="tspan5694"
         x="29.399645"
         y="37.481289"
         style="fill:#e9ddaf;stroke-width:0.26458332">Warum? Für wen?</tspan></text>
    <g
       id="g6275"
       transform="rotate(-9.4833493,107.87456,393.7213)">
      <rect
         y="55.655613"
         x="66.817383"
         height="50.781208"
         width="97.286102"
         id="rect6267"
         style="fill:#e9ddaf;fill-opacity:1;stroke-width:0.25247616" />
      <text
         id="text6259"
         y="68.217285"
         x="74.300926"
         style="font-style:normal;font-weight:normal;font-size:7.05555534px;line-height:1.25;font-family:sans-serif;letter-spacing:0px;word-spacing:0px;fill:#333333;fill-opacity:1;stroke:none;stroke-width:0.26458332"
         xml:space="preserve"><tspan
           style="font-style:normal;font-variant:normal;font-weight:bold;font-stretch:normal;font-family:sans-serif;-inkscape-font-specification:'sans-serif Bold';fill:#333333;stroke-width:0.26458332"
           y="68.217285"
           x="74.300926"
           id="tspan6257"
           sodipodi:role="line">Schüler / Studenten</tspan><tspan
           id="tspan6261"
           style="fill:#333333;stroke-width:0.26458332"
           y="77.036728"
           x="74.300926"
           sodipodi:role="line">- mehr Transparenz</tspan><tspan
           id="tspan6263"
           style="fill:#333333;stroke-width:0.26458332"
           y="85.856171"
           x="74.300926"
           sodipodi:role="line">- geringere Kosten</tspan><tspan
           id="tspan6265"
           style="fill:#333333;stroke-width:0.26458332"
           y="94.675621"
           x="74.300926"
           sodipodi:role="line">- optimales Material</tspan></text>
    </g>
    <g
       transform="rotate(8.2735236,-22.906472,325.07884)"
       id="g6275-0">
      <rect
         y="55.655613"
         x="66.817383"
         height="50.781208"
         width="97.286102"
         id="rect6267-7"
         style="fill:#e9ddaf;fill-opacity:1;stroke-width:0.25247616" />
      <text
         id="text6259-4"
         y="68.217285"
         x="74.300926"
         style="font-style:normal;font-weight:normal;font-size:7.05555534px;line-height:1.25;font-family:sans-serif;letter-spacing:0px;word-spacing:0px;fill:#333333;fill-opacity:1;stroke:none;stroke-width:0.26458332"
         xml:space="preserve"><tspan
           style="font-style:normal;font-variant:normal;font-weight:bold;font-stretch:normal;font-family:sans-serif;-inkscape-font-specification:'sans-serif Bold';fill:#333333;stroke-width:0.26458332"
           y="68.217285"
           x="74.300926"
           id="tspan6257-7"
           sodipodi:role="line">Lehrer / Dozenten</tspan><tspan
           id="tspan6261-0"
           style="fill:#333333;stroke-width:0.26458332"
           y="77.036728"
           x="74.300926"
           sodipodi:role="line">- gemeinsame Erstellung</tspan><tspan
           id="tspan6263-1"
           style="fill:#333333;stroke-width:0.26458332"
           y="85.856171"
           x="74.300926"
           sodipodi:role="line">- nachhaltiges Material</tspan><tspan
           id="tspan6265-9"
           style="fill:#333333;stroke-width:0.26458332"
           y="94.675621"
           x="74.300926"
           sodipodi:role="line">- größere Reichweite</tspan></text>
    </g>
    <text
       xml:space="preserve"
       style="font-style:normal;font-weight:normal;font-size:10.58333302px;line-height:1.25;font-family:sans-serif;letter-spacing:0px;word-spacing:0px;fill:#000000;fill-opacity:1;stroke:none;stroke-width:0.26458332"
       x="34.477772"
       y="146.25999"
       id="text6312"><tspan
         sodipodi:role="line"
         id="tspan6310"
         x="34.477772"
         y="146.25999"
         style="fill:#e9ddaf;stroke-width:0.26458332">- Lernkontinuum</tspan><tspan
         sodipodi:role="line"
         x="34.477772"
         y="159.48917"
         style="fill:#e9ddaf;stroke-width:0.26458332"
         id="tspan6314">- Chancengleichheit</tspan><tspan
         sodipodi:role="line"
         x="34.477772"
         y="172.71832"
         style="fill:#e9ddaf;stroke-width:0.26458332"
         id="tspan6316">- freie, evolutionäres und</tspan><tspan
         sodipodi:role="line"
         x="34.477772"
         y="185.94749"
         style="fill:#e9ddaf;stroke-width:0.26458332"
         id="tspan6318">nachhaltige Materialien</tspan></text>
  </g>
</svg>
