<?xml version="1.0" encoding="UTF-8" standalone="no"?>
<!-- Created with Inkscape (http://www.inkscape.org/) -->

<svg
   xmlns:dc="http://purl.org/dc/elements/1.1/"
   xmlns:cc="http://creativecommons.org/ns#"
   xmlns:rdf="http://www.w3.org/1999/02/22-rdf-syntax-ns#"
   xmlns:svg="http://www.w3.org/2000/svg"
   xmlns="http://www.w3.org/2000/svg"
   xmlns:sodipodi="http://sodipodi.sourceforge.net/DTD/sodipodi-0.dtd"
   xmlns:inkscape="http://www.inkscape.org/namespaces/inkscape"
   width="210mm"
   height="297mm"
   viewBox="0 0 210 297"
   version="1.1"
   id="svg1414"
   inkscape:version="0.92.4 (5da689c313, 2019-01-14)"
   sodipodi:docname="wuerfel-links.svg">
  <defs
     id="defs1408" />
  <sodipodi:namedview
     id="base"
     pagecolor="#ffffff"
     bordercolor="#666666"
     borderopacity="1.0"
     inkscape:pageopacity="0.0"
     inkscape:pageshadow="2"
     inkscape:zoom="0.98994949"
     inkscape:cx="356.66876"
     inkscape:cy="791.09626"
     inkscape:document-units="mm"
     inkscape:current-layer="layer1"
     showgrid="false"
     inkscape:window-width="1920"
     inkscape:window-height="986"
     inkscape:window-x="-11"
     inkscape:window-y="-11"
     inkscape:window-maximized="1" />
  <metadata
     id="metadata1411">
    <rdf:RDF>
      <cc:Work
         rdf:about="">
        <dc:format>image/svg+xml</dc:format>
        <dc:type
           rdf:resource="http://purl.org/dc/dcmitype/StillImage" />
        <dc:title />
      </cc:Work>
    </rdf:RDF>
  </metadata>
  <g
     inkscape:label="Ebene 1"
     inkscape:groupmode="layer"
     id="layer1">
    <rect
       style="fill:#333333;fill-opacity:1;stroke-width:0.27806848"
       id="rect1382"
       width="210.34111"
       height="210.34111"
       x="0.66818464"
       y="0.19719468" />
    <text
       xml:space="preserve"
       style="font-style:normal;font-weight:normal;font-size:16.93333244px;line-height:1.25;font-family:sans-serif;letter-spacing:0px;word-spacing:0px;fill:#000000;fill-opacity:1;stroke:none;stroke-width:0.26458332"
       x="18.708872"
       y="29.195936"
       id="text5696"><tspan
         sodipodi:role="line"
         id="tspan5694"
         x="18.708872"
         y="29.195936"
         style="fill:#e9ddaf;stroke-width:0.26458332">Jetzt anfangen!</tspan></text>
    <text
       xml:space="preserve"
       style="font-style:normal;font-weight:normal;font-size:10.58333302px;line-height:1.25;font-family:sans-serif;letter-spacing:0px;word-spacing:0px;fill:#000000;fill-opacity:1;stroke:none;stroke-width:0.26458332"
       x="24.856066"
       y="49.775684"
       id="text6322"><tspan
         sodipodi:role="line"
         x="24.856066"
         y="49.775684"
         style="fill:#e9ddaf;stroke-width:0.26458332"
         id="tspan6988">- in weniger als 1h den </tspan><tspan
         sodipodi:role="line"
         x="24.856066"
         y="63.004852"
         style="fill:#e9ddaf;stroke-width:0.26458332"
         id="tspan11000">  ersten Kurs online und </tspan><tspan
         sodipodi:role="line"
         x="24.856066"
         y="76.234016"
         style="fill:#e9ddaf;stroke-width:0.26458332"
         id="tspan11002">  auffindbar machen</tspan><tspan
         sodipodi:role="line"
         x="24.856066"
         y="89.463181"
         style="fill:#e9ddaf;stroke-width:0.26458332"
         id="tspan10996" /><tspan
         sodipodi:role="line"
         x="24.856066"
         y="102.69235"
         style="fill:#e9ddaf;stroke-width:0.26458332"
         id="tspan10998">www.oer-wuerfel.de/start</tspan></text>
  </g>
</svg>
